16 Segmentizing | User’s guide for LTabundR
…
# A tibble: 95 × 39
   seg_id Cruise ship  stratum use   Mode  EffType OnEffort   ESWsides   dist
    <dbl>  <dbl> <chr> <chr>   <chr> <chr> <chr>   <chr>         <dbl>  <dbl>
 1      1   2001 OES   HI_EEZ  FALSE NA-P  NA-S    FALSE-TRUE       NA  0    
 2      2   2001 OES   HI_EEZ  FALSE P-NA  S-NA    TRUE-FALSE        2  0    
 3      3   2001 OES   HI_EEZ  FALSE NA-C  NA-S-N  FALSE-TRUE       NA 41.5  
 4      6   2001 OES   WHICEAS FALSE P-NA  N-NA    FALSE             2 29.7  
 5     14   2001 OES   WHICEAS TRUE  C     F       TRUE              2 36.0  
 6     15   2001 OES   WHICEAS TRUE  C     F       TRUE              2  3.21 
 7     16   2001 OES   WHICEAS TRUE  C     F       TRUE              2  0.946
 8     18   2001 OES   WHICEAS TRUE  C     N       TRUE              2 30.1  
 9     19   2001 OES   WHICEAS TRUE  P-C   N       TRUE              2 30.6  
10     20   2001 OES   WHICEAS TRUE  C-P   N       TRUE              2 30.4  
# ℹ 85 more rows
# ℹ 29 more variables: minutes <dbl>, n_rows <int>, min_line <int>,
#   max_line <int>, year <dbl>, month <dbl>, day <int>, lat1 <dbl>, lon1 <dbl>,
#   DateTime1 <dttm>, timestamp1 <dbl>, yday1 <dbl>, lat2 <dbl>, lon2 <dbl>,
#   DateTime2 <dttm>, timestamp2 <dbl>, yday2 <dbl>, mlat <dbl>, mlon <dbl>,
#   mDateTime <dttm>, mtimestamp <dbl>, avgBft <dbl>, avgSwellHght <dbl>,
#   avgHorizSun <dbl>, avgVertSun <dbl>, avgGlare <dbl>, avgVis <dbl>, …
…
# A tibble: 72 × 39
   seg_id Cruise ship  stratum use   Mode   EffType  OnEffort   ESWsides  dist
    <dbl>  <dbl> <chr> <chr>   <chr> <chr>  <chr>    <chr>         <dbl> <dbl>
 1      1   2001 OES   HI_EEZ  FALSE NA-P   NA-S     FALSE-TRUE       NA   0  
 2      2   2001 OES   HI_EEZ  FALSE P-NA   S-NA     TRUE-FALSE        2   0  
 3      3   2001 OES   HI_EEZ  FALSE NA-C   NA-S-N   FALSE-TRUE       NA  41.5
 4      6   2001 OES   WHICEAS FALSE C-NA   NA-F-N-S TRUE-FALSE       NA  99.9
 5      7   2001 OES   WHICEAS FALSE C-NA   S-NA-F-N FALSE-TRUE        2  99.6
 6      8   2001 OES   WHICEAS FALSE C-NA   F-N-NA-S FALSE-TRUE        2 100. 
 7      9   2001 OES   WHICEAS FALSE C-NA-P S-NA-F   FALSE-TRUE        2  99.5
 8     10   2001 OES   WHICEAS FALSE C-NA   S-NA     FALSE-TRUE        2 101. 
 9     11   2001 OES   WHICEAS FALSE C-NA   S-NA     FALSE-TRUE        2  75.9
10     12   2001 OES   WHICEAS FALSE C-NA   S-NA-N-F FALSE-TRUE        2 100. 
# ℹ 62 more rows
# ℹ 29 more variables: minutes <dbl>, n_rows <int>, min_line <int>,
#   max_line <int>, year <dbl>, month <dbl>, day <int>, lat1 <dbl>, lon1 <dbl>,
#   DateTime1 <dttm>, timestamp1 <dbl>, yday1 <dbl>, lat2 <dbl>, lon2 <dbl>,
#   DateTime2 <dttm>, timestamp2 <dbl>, yday2 <dbl>, mlat <dbl>, mlon <dbl>,
#   mDateTime <dttm>, mtimestamp <dbl>, avgBft <dbl>, avgSwellHght <dbl>,
#   avgHorizSun <dbl>, avgVertSun <dbl>, avgGlare <dbl>, avgVis <dbl>, …
…
# A tibble: 133 × 39
   seg_id Cruise ship  stratum use   Mode  EffType OnEffort   ESWsides   dist
    <dbl>  <dbl> <chr> <chr>   <chr> <chr> <chr>   <chr>         <dbl>  <dbl>
 1      2   2001 OES   HI_EEZ  FALSE NA-P  NA-S    FALSE-TRUE       NA  0    
 2      3   2001 OES   HI_EEZ  FALSE P-NA  S-NA    TRUE-FALSE        2  0    
 3      4   2001 OES   HI_EEZ  FALSE NA-C  NA-S    FALSE            NA  6.98 
 4     18   2001 OES   WHICEAS FALSE C-NA  F-NA    FALSE             2 29.8  
 5     25   2001 OES   WHICEAS FALSE C-NA  S-NA    FALSE-TRUE        2  0    
 6     30   2001 OES   WHICEAS FALSE C-P   F-S     FALSE-TRUE        2  2.42 
 7     37   2001 OES   WHICEAS FALSE C-NA  S-NA    FALSE-TRUE        2  0.967
 8     43   2001 OES   WHICEAS FALSE C-NA  S-NA    FALSE-TRUE        2  0    
 9     49   2001 OES   WHICEAS FALSE C-NA  S-NA    FALSE-TRUE        2  3.24 
10     54   2001 OES   WHICEAS FALSE C-NA  S-NA    FALSE-TRUE        2  1.57 
# ℹ 123 more rows
# ℹ 29 more variables: minutes <dbl>, n_rows <int>, min_line <int>,
#   max_line <int>, year <dbl>, month <dbl>, day <int>, lat1 <dbl>, lon1 <dbl>,
#   DateTime1 <dttm>, timestamp1 <dbl>, yday1 <dbl>, lat2 <dbl>, lon2 <dbl>,
#   DateTime2 <dttm>, timestamp2 <dbl>, yday2 <dbl>, mlat <dbl>, mlon <dbl>,
#   mDateTime <dttm>, mtimestamp <dbl>, avgBft <dbl>, avgSwellHght <dbl>,
#   avgHorizSun <dbl>, avgVertSun <dbl>, avgGlare <dbl>, avgVis <dbl>, …
…
# A tibble: 105 × 39
   seg_id Cruise ship  stratum use   Mode  EffType OnEffort   ESWsides  dist
    <dbl>  <dbl> <chr> <chr>   <chr> <chr> <chr>   <chr>         <dbl> <dbl>
 1      2   2001 OES   HI_EEZ  FALSE NA-P  NA-S    FALSE-TRUE       NA     0
 2      3   2001 OES   HI_EEZ  FALSE P-NA  S-NA    TRUE-FALSE        2     0
 3     16   2001 OES   WHICEAS FALSE C-NA  F-NA    FALSE             2     0
 4     22   2001 OES   WHICEAS FALSE C-NA  S-NA    FALSE-TRUE        2     0
 5     26   2001 OES   WHICEAS FALSE C-P   F-S     FALSE             2     0
 6     29   2001 OES   WHICEAS FALSE C-NA  S-NA    FALSE             2     0
 7     36   2001 OES   WHICEAS FALSE C-NA  S-NA    FALSE-TRUE        2     0
 8     41   2001 OES   WHICEAS FALSE C-NA  S-NA    FALSE             2     0
 9     45   2001 OES   WHICEAS FALSE C-NA  S-NA    FALSE             2     0
10     48   2001 OES   WHICEAS FALSE C-NA  S-NA    FALSE-TRUE        2     0
# ℹ 95 more rows
# ℹ 29 more variables: minutes <dbl>, n_rows <int>, min_line <int>,
#   max_line <int>, year <dbl>, month <dbl>, day <int>, lat1 <dbl>, lon1 <dbl>,
#   DateTime1 <dttm>, timestamp1 <dbl>, yday1 <dbl>, lat2 <dbl>, lon2 <dbl>,
#   DateTime2 <dttm>, timestamp2 <dbl>, yday2 <dbl>, mlat <dbl>, mlon <dbl>,
#   mDateTime <dttm>, mtimestamp <dbl>, avgBft <dbl>, avgSwellHght <dbl>,
#   avgHorizSun <dbl>, avgVertSun <dbl>, avgGlare <dbl>, avgVis <dbl>, …
…
# A tibble: 105 × 39
   seg_id Cruise ship  stratum use   Mode  EffType OnEffort   ESWsides  dist
    <dbl>  <dbl> <chr> <chr>   <chr> <chr> <chr>   <chr>         <dbl> <dbl>
 1      2   2001 OES   HI_EEZ  FALSE NA-P  NA-S    FALSE-TRUE       NA     0
 2      3   2001 OES   HI_EEZ  FALSE P-NA  S-NA    TRUE-FALSE        2     0
 3     16   2001 OES   WHICEAS FALSE C-NA  F-NA    FALSE             2     0
 4     22   2001 OES   WHICEAS FALSE C-NA  S-NA    FALSE-TRUE        2     0
 5     26   2001 OES   WHICEAS FALSE C-P   F-S     FALSE             2     0
 6     30   2001 OES   WHICEAS FALSE C-NA  S-NA    FALSE             2     0
 7     39   2001 OES   WHICEAS FALSE C-NA  S-NA    FALSE-TRUE        2     0
 8     45   2001 OES   WHICEAS FALSE C-NA  S-NA    FALSE             2     0
 9     49   2001 OES   WHICEAS FALSE C-NA  S-NA    FALSE             2     0
10     52   2001 OES   WHICEAS FALSE C-NA  S-NA    FALSE-TRUE        2     0
# ℹ 95 more rows
# ℹ 29 more variables: minutes <dbl>, n_rows <int>, min_line <int>,
#   max_line <int>, year <dbl>, month <dbl>, day <int>, lat1 <dbl>, lon1 <dbl>,
#   DateTime1 <dttm>, timestamp1 <dbl>, yday1 <dbl>, lat2 <dbl>, lon2 <dbl>,
#   DateTime2 <dttm>, timestamp2 <dbl>, yday2 <dbl>, mlat <dbl>, mlon <dbl>,
#   mDateTime <dttm>, mtimestamp <dbl>, avgBft <dbl>, avgSwellHght <dbl>,
#   avgHorizSun <dbl>, avgVertSun <dbl>, avgGlare <dbl>, avgVis <dbl>, …
…
# A tibble: 172 × 39
   seg_id Cruise ship  stratum use   Mode  EffType OnEffort   ESWsides  dist
    <dbl>  <dbl> <chr> <chr>   <chr> <chr> <chr>   <chr>         <dbl> <dbl>
 1      2   2001 OES   HI_EEZ  FALSE NA-P  NA-S    FALSE-TRUE       NA 0    
 2      3   2001 OES   HI_EEZ  FALSE P-NA  S-NA    TRUE-FALSE        2 0    
 3      4   2001 OES   HI_EEZ  FALSE NA-C  NA-S    FALSE            NA 4.42 
 4     31   2001 OES   WHICEAS FALSE C-NA  F-NA    FALSE             2 4.78 
 5     46   2001 OES   WHICEAS FALSE C-NA  S-NA    FALSE-TRUE        2 0    
 6     56   2001 OES   WHICEAS FALSE C-P   F-S     FALSE-TRUE        2 2.42 
 7     65   2001 OES   WHICEAS FALSE C-NA  S-NA    FALSE-TRUE        2 0.967
 8     82   2001 OES   WHICEAS FALSE C-NA  S-NA    FALSE-TRUE        2 0    
 9     95   2001 OES   WHICEAS FALSE C-NA  S-NA    FALSE-TRUE        2 3.24 
10    104   2001 OES   WHICEAS FALSE C-NA  S-NA    FALSE-TRUE        2 1.57 
# ℹ 162 more rows
# ℹ 29 more variables: minutes <dbl>, n_rows <int>, min_line <int>,
#   max_line <int>, year <dbl>, month <dbl>, day <int>, lat1 <dbl>, lon1 <dbl>,
#   DateTime1 <dttm>, timestamp1 <dbl>, yday1 <dbl>, lat2 <dbl>, lon2 <dbl>,
#   DateTime2 <dttm>, timestamp2 <dbl>, yday2 <dbl>, mlat <dbl>, mlon <dbl>,
#   mDateTime <dttm>, mtimestamp <dbl>, avgBft <dbl>, avgSwellHght <dbl>,
#   avgHorizSun <dbl>, avgVertSun <dbl>, avgGlare <dbl>, avgVis <dbl>, …
…
